<?xml version="1.0" encoding="utf-8"?>
<!-- Generator: Adobe Illustrator 23.0.2, SVG Export Plug-In . SVG Version: 6.00 Build 0)  -->
<svg version="1.1" id="Camada_1" xmlns="http://www.w3.org/2000/svg" xmlns:xlink="http://www.w3.org/1999/xlink" x="0px" y="0px"
	 viewBox="0 0 271.7 208.1" style="enable-background:new 0 0 271.7 208.1;" xml:space="preserve">
<style type="text/css">
	.st0{fill:#881A4B;}
</style>
<g>
	<path class="st0" d="M129.4,131.6c0,29-20.8,47.6-49.1,47.6s-49.1-18.6-49.1-47.6c0-11.9,1.5-20.8,14.5-48.7l26-55.4h52.1
		l-18.6,62.9C120.1,97.4,129.4,111.9,129.4,131.6z M237.3,131.6c0,29-20.8,47.6-49.1,47.6c-28.3,0-49.1-18.6-49.1-47.6
		c0-11.9,1.5-20.8,14.5-48.7l26-55.4h52.1l-18.6,62.9C228,97.4,237.3,111.9,237.3,131.6z"/>
</g>
</svg>
